{
    "Table": {
        "AttributeDefinitions": [
            {
                "AttributeName": "MovieID",
                "AttributeType": "S"
            },
            {
                "AttributeName": "Title",
                "AttributeType": "S"
            },
            {
                "AttributeName": "Year",
                "AttributeType": "N"
            }
        ],
        "TableName": "eGoGames_beta_Transactions",
        "KeySchema": [
            {
                "AttributeName": "MovieID",
                "KeyType": "HASH"
            },
            {
                "AttributeName": "Year",
                "KeyType": "RANGE"
            }
        ]
    }
}
